brian/code/basicDispersionCode/DATA/N2/tek0024CH1.csv

Model,DPO3034
Firmware Version,2.31

Waveform Type,Analog
Point Format,ENV
Horizontal Units,s
Horizontal Scale,0.4
Horizontal Delay,2
Sample Interval,4e-05
Record Length,100000
Gating,0.0% to 100.0%
Probe Attenuation,1
Vertical Units,V
Vertical Offset,0
Vertical Scale,2
Vertical Position,0
Label,
TIME,CH1
0.00000e+00,0.08
4.00000e-05,0.08
8.00000e-05,0
1.20000e-04,0.08
1.60000e-04,0
2.00000e-04,0
2.40000e-04,0
2.80000e-04,-0.08
3.20000e-04,0
3.60000e-04,0.16
4.00000e-04,0
4.40000e-04,0
4.80000e-04,0
5.20000e-04,0
5.60000e-04,0.08
6.00000e-04,0.08
6.40000e-04,0
6.80000e-04,0
7.20000e-04,0
7.60000e-04,0
8.00000e-04,0
8.40000e-04,0
8.80000e-04,0.08
9.20000e-04,0.16
9.60000e-04,0
1.00000e-03,0
1.04000e-03,0
1.08000e-03,0.08
1.12000e-03,-0.16
1.16000e-03,0
1.20000e-03,0
1.24000e-03,0
1.28000e-03,0.08
1.32000e-03,0
1.36000e-03,0
1.40000e-03,0.08
1.44000e-03,0
1.48000e-03,0
1.52000e-03,0
1.56000e-03,0
1.60000e-03,0
1.64000e-03,0
1.68000e-03,0.08
1.72000e-03,0
1.76000e-03,-0.08
1.80000e-03,-0.08
1.84000e-03,0.08
1.88000e-03,0.08
1.92000e-03,0
1.96000e-03,0
2.00000e-03,0.08
2.04000e-03,0.08
2.08000e-03,0.16
2.12000e-03,0.16
2.16000e-03,0.08
2.20000e-03,0.08
2.24000e-03,0.16
2.28000e-03,0.16
2.32000e-03,0
2.36000e-03,0.16
2.40000e-03,0.24
2.44000e-03,0.16
2.48000e-03,0.08
2.52000e-03,0
2.56000e-03,0.24
2.60000e-03,0.16
2.64000e-03,0.08
2.68000e-03,0.08
2.72000e-03,0.16
2.76000e-03,0.24
2.80000e-03,0.08
2.84000e-03,0.08
2.88000e-03,0.24
2.92000e-03,0.08
2.96000e-03,0.16
3.00000e-03,0.16
3.04000e-03,0
3.08000e-03,0.16
3.12000e-03,0.32
3.16000e-03,0.32
3.20000e-03,0.08
3.24000e-03,0.32
3.28000e-03,0.16
3.32000e-03,0.24
3.36000e-03,0.24
3.40000e-03,0.24
3.44000e-03,0.32
3.48000e-03,0.24
3.52000e-03,0.4
3.56000e-03,0.32
3.60000e-03,0.24
3.64000e-03,0.24
3.68000e-03,0.24
3.72000e-03,0.24
3.76000e-03,0.16
3.80000e-03,0.4
3.84000e-03,0.32
3.88000e-03,0.56
3.92000e-03,0.32
3.96000e-03,0.32
4.00000e-03,0.32
4.04000e-03,0.32
4.08000e-03,0.4
4.12000e-03,0.48
4.16000e-03,0.4
4.20000e-03,0.4
4.24000e-03,0.4
4.28000e-03,0.48
4.32000e-03,0.4
4.36000e-03,0.48
4.40000e-03,0.48
4.44000e-03,0.64
4.48000e-03,0.48
4.52000e-03,0.56
4.56000e-03,0.56
4.60000e-03,0.48
4.64000e-03,0.72
4.68000e-03,0.56
4.72000e-03,0.64
4.76000e-03,0.64
4.80000e-03,0.64
4.84000e-03,0.56
4.88000e-03,0.64
4.92000e-03,0.64
4.96000e-03,0.64
5.00000e-03,0.72
5.04000e-03,0.64
5.08000e-03,0.72
5.12000e-03,0.64
5.16000e-03,0.64
5.20000e-03,0.72
5.24000e-03,0.72
5.28000e-03,0.72
5.32000e-03,0.8
5.36000e-03,0.72
5.40000e-03,0.8
5.44000e-03,0.72
5.48000e-03,0.96
5.52000e-03,0.8
5.56000e-03,1.04
5.60000e-03,0.96
5.64000e-03,0.96
5.68000e-03,0.8
5.72000e-03,0.8
5.76000e-03,0.96
5.80000e-03,0.96
5.84000e-03,0.96
5.88000e-03,0.88
5.92000e-03,1.2
5.96000e-03,1.04
6.00000e-03,0.96
6.04000e-03,0.88
6.08000e-03,0.88
6.12000e-03,1.04
6.16000e-03,0.88
6.20000e-03,0.96
6.24000e-03,1.12
6.28000e-03,1.12
6.32000e-03,0.96
6.36000e-03,1.04
6.40000e-03,1.04
6.44000e-03,0.96
6.48000e-03,1.04
6.52000e-03,1.2
6.56000e-03,1.04
6.60000e-03,1.12
6.64000e-03,1.04
6.68000e-03,1.2
6.72000e-03,1.2
6.76000e-03,1.2
6.80000e-03,1.12
6.84000e-03,1.36
6.88000e-03,1.28
6.92000e-03,1.12
6.96000e-03,1.28
7.00000e-03,1.36
7.04000e-03,1.2
7.08000e-03,1.28
7.12000e-03,1.2
7.16000e-03,1.36
7.20000e-03,1.36
7.24000e-03,1.36
7.28000e-03,1.2
7.32000e-03,1.52
7.36000e-03,1.36
7.40000e-03,1.44
7.44000e-03,1.44
7.48000e-03,1.44
7.52000e-03,1.44
7.56000e-03,1.36
7.60000e-03,1.44
7.64000e-03,1.44
7.68000e-03,1.44
7.72000e-03,1.44
7.76000e-03,1.44
7.80000e-03,1.68
7.84000e-03,1.52
7.88000e-03,1.52
7.92000e-03,1.52
7.96000e-03,1.6
8.00000e-03,1.52
8.04000e-03,1.68
8.08000e-03,1.52
8.12000e-03,1.68
8.16000e-03,1.52
8.20000e-03,1.52
8.24000e-03,1.68
8.28000e-03,1.6
8.32000e-03,1.6
8.36000e-03,1.6
8.40000e-03,1.68
8.44000e-03,1.76
8.48000e-03,1.6
8.52000e-03,1.52
8.56000e-03,1.6
8.60000e-03,1.76
8.64000e-03,1.68
8.68000e-03,1.76
8.72000e-03,1.76
8.76000e-03,1.84
8.80000e-03,1.76
8.84000e-03,1.6
8.88000e-03,1.76
8.92000e-03,1.84
8.96000e-03,1.76
9.00000e-03,1.68
9.04000e-03,1.84
9.08000e-03,1.76
9.12000e-03,1.84
9.16000e-03,1.84
9.20000e-03,1.76
9.24000e-03,1.76
9.28000e-03,1.92
9.32000e-03,1.84
9.36000e-03,1.92
9.40000e-03,2
9.44000e-03,1.92
9.48000e-03,1.84
9.52000e-03,2
9.56000e-03,1.76
9.60000e-03,1.92
9.64000e-03,1.84
9.68000e-03,1.92
9.72000e-03,1.76
9.76000e-03,1.92
9.80000e-03,2.08
9.84000e-03,2.24
9.88000e-03,1.92
9.92000e-03,2
9.96000e-03,1.92
1.00000e-02,1.84
1.00400e-02,1.92
1.00800e-02,2.08
1.01200e-02,2.08
1.01600e-02,2.16
1.02000e-02,2
1.02400e-02,1.92
1.02800e-02,2.08
1.03200e-02,2.08
1.03600e-02,2.16
1.04000e-02,1.92
1.04400e-02,2.08
1.04800e-02,2
1.05200e-02,2.08
1.05600e-02,1.92
1.06000e-02,2.08
1.06400e-02,2
1.06800e-02,2.24
1.07200e-02,2.08
1.07600e-02,2.08
1.08000e-02,2.24
1.08400e-02,2.08
1.08800e-02,2.16
1.09200e-02,2.08
1.09600e-02,2.08
1.10000e-02,2.24
1.10400e-02,2.16
1.10800e-02,2.16
1.11200e-02,2.08
1.11600e-02,2.24
1.12000e-02,2.16
1.12400e-02,2.24
1.12800e-02,2.24
1.13200e-02,2.32
1.13600e-02,2.16
1.14000e-02,2.24
1.14400e-02,2.32
1.14800e-02,2.32
1.15200e-02,2.24
1.15600e-02,2.24
1.16000e-02,2.32
1.16400e-02,2.16
1.16800e-02,2.32
1.17200e-02,2.24
1.17600e-02,2.16
1.18000e-02,2.32
1.18400e-02,2.32
1.18800e-02,2.4
1.19200e-02,2.32
1.19600e-02,2.16
1.20000e-02,2.16
1.20400e-02,2.24
1.20800e-02,2.24
1.21200e-02,2.32
1.21600e-02,2.32
1.22000e-02,2.4
1.22400e-02,2.32
1.22800e-02,2.32
1.23200e-02,2.4
1.23600e-02,2.48
1.24000e-02,2.48
1.24400e-02,2.16
1.24800e-02,2.4
1.25200e-02,2.4
1.25600e-02,2.48
1.26000e-02,2.32
1.26400e-02,2.24
1.26800e-02,2.4
1.27200e-02,2.48
1.27600e-02,2.48
1.28000e-02,2.4
1.28400e-02,2.48
1.28800e-02,2.32
1.29200e-02,2.32
1.29600e-02,2.4
1.30000e-02,2.4
1.30400e-02,2.4
1.30800e-02,2.4
1.31200e-02,2.4
1.31600e-02,2.4
1.32000e-02,2.48
1.32400e-02,2.48
1.32800e-02,2.32
1.33200e-02,2.48
1.33600e-02,2.4
1.34000e-02,2.32
1.34400e-02,2.56
1.34800e-02,2.4
1.35200e-02,2.48
1.35600e-02,2.32
1.36000e-02,2.48
1.36400e-02,2.48
1.36800e-02,2.32
1.37200e-02,2.4
1.37600e-02,2.48
1.38000e-02,2.48
1.38400e-02,2.4
1.38800e-02,2.4
1.39200e-02,2.56
1.39600e-02,2.4
1.40000e-02,2.4
1.40400e-02,2.48
1.40800e-02,2.64
1.41200e-02,2.48
1.41600e-02,2.4
1.42000e-02,2.48
1.42400e-02,2.32
1.42800e-02,2.48
1.43200e-02,2.56
1.43600e-02,2.4
1.44000e-02,2.4
1.44400e-02,2.56
1.44800e-02,2.56
1.45200e-02,2.4
1.45600e-02,2.56
1.46000e-02,2.32
1.46400e-02,2.4
1.46800e-02,2.32
1.47200e-02,2.56
1.47600e-02,2.4
1.48000e-02,2.56
1.48400e-02,2.48
1.48800e-02,2.32
1.49200e-02,2.4
1.49600e-02,2.32
1.50000e-02,2.48
1.50400e-02,2.4
1.50800e-02,2.48
1.51200e-02,2.4
1.51600e-02,2.48
1.52000e-02,2.4
1.52400e-02,2.48
1.52800e-02,2.4
1.53200e-02,2.56
1.53600e-02,2.48
1.54000e-02,2.4
1.54400e-02,2.48
1.54800e-02,2.48
1.55200e-02,2.4
1.55600e-02,2.48
1.56000e-02,2.32
1.56400e-02,2.64
1.56800e-02,2.48
1.57200e-02,2.64
1.57600e-02,2.4
1.58000e-02,2.32
1.58400e-02,2.4
1.58800e-02,2.48
1.59200e-02,2.4
1.59600e-02,2.48
1.60000e-02,2.64
1.60400e-02,2.48
1.60800e-02,2.48
1.61200e-02,2.4
1.61600e-02,2.48
1.62000e-02,2.72
1.62400e-02,2.32
1.62800e-02,2.4
1.63200e-02,2.4
1.63600e-02,2.48
1.64000e-02,2.32
1.64400e-02,2.48
1.64800e-02,2.56
1.65200e-02,2.4
1.65600e-02,2.4
1.66000e-02,2.56
1.66400e-02,2.4
1.66800e-02,2.32
1.67200e-02,2.4
1.67600e-02,2.48
1.68000e-02,2.4
1.68400e-02,2.32
1.68800e-02,2.4
1.69200e-02,2.24
1.69600e-02,2.32
1.70000e-02,2.32
1.70400e-02,2.4
1.70800e-02,2.24
1.71200e-02,2.32
1.71600e-02,2.48
1.72000e-02,2.4
1.72400e-02,2.32
1.72800e-02,2.32
1.73200e-02,2.32
1.73600e-02,2.16
1.74000e-02,2.24
1.74400e-02,2.24
1.74800e-02,2.24
1.75200e-02,2.24
1.75600e-02,2.24
1.76000e-02,2.24
1.76400e-02,2.24
1.76800e-02,2.08
1.77200e-02,2.24
1.77600e-02,2.16
1.78000e-02,2.16
1.78400e-02,2.08
1.78800e-02,2.24
1.79200e-02,2.08
1.79600e-02,2.16
1.80000e-02,2.08
1.80400e-02,2.16
1.80800e-02,1.92
1.81200e-02,2.08
1.81600e-02,1.92
1.82000e-02,2
1.82400e-02,2
1.82800e-02,1.92
1.83200e-02,2
1.83600e-02,1.92
1.84000e-02,1.92
1.84400e-02,1.84
1.84800e-02,1.76
1.85200e-02,1.84
1.85600e-02,1.84
1.86000e-02,1.76
1.86400e-02,1.76
1.86800e-02,1.84
1.87200e-02,1.76
1.87600e-02,1.68
1.88000e-02,1.68
1.88400e-02,1.76
1.88800e-02,1.84
1.89200e-02,1.6
1.89600e-02,1.76
1.90000e-02,1.6
1.90400e-02,1.52
1.90800e-02,1.68
1.91200e-02,1.52
1.91600e-02,1.44
1.92000e-02,1.68
1.92400e-02,1.52
1.92800e-02,1.6
1.93200e-02,1.44
1.93600e-02,1.44
1.94000e-02,1.52
1.94400e-02,1.36
1.94800e-02,1.44
1.95200e-02,1.44
1.95600e-02,1.44
1.96000e-02,1.36
1.96400e-02,1.44
1.96800e-02,1.28
1.97200e-02,1.28
1.97600e-02,1.28
1.98000e-02,1.28
1.98400e-02,1.44
1.98800e-02,1.36
1.99200e-02,1.04
1.99600e-02,1.04
2.00000e-02,1.28
2.00400e-02,1.04
2.00800e-02,1.12
2.01200e-02,1.2
2.01600e-02,1.12
2.02000e-02,1.12
2.02400e-02,1.2
2.02800e-02,1.04
2.03200e-02,1.04
2.03600e-02,1.12
2.04000e-02,0.96
2.04400e-02,0.88
2.04800e-02,0.96
2.05200e-02,0.88
2.05600e-02,0.8
2.06000e-02,0.72
2.06400e-02,0.72
2.06800e-02,0.8
2.07200e-02,0.8
2.07600e-02,0.64
2.08000e-02,0.72
2.08400e-02,0.56
2.08800e-02,0.72
2.09200e-02,0.56
2.09600e-02,0.56
2.10000e-02,0.56
2.10400e-02,0.48
2.10800e-02,0.56
2.11200e-02,0.56
2.11600e-02,0.48
2.12000e-02,0.56
2.12400e-02,0.4
2.12800e-02,0.4
2.13200e-02,0.24
2.13600e-02,0.32
2.14000e-02,0.24
2.14400e-02,0.32
2.14800e-02,0.24
2.15200e-02,0.24
2.15600e-02,0.16
2.16000e-02,0.08
2.16400e-02,0.16
2.16800e-02,0.08
2.17200e-02,0.08
2.17600e-02,0.08
2.18000e-02,0.08
2.18400e-02,0.08
2.18800e-02,0
2.19200e-02,0
2.19600e-02,-0.08
2.20000e-02,-0.08
2.20400e-02,0
2.20800e-02,-0.16
2.21200e-02,-0.16
2.21600e-02,-0.16
2.22000e-02,-0.16
2.22400e-02,-0.16
2.22800e-02,-0.16
2.23200e-02,-0.16
2.23600e-02,-0.24
2.24000e-02,-0.4
2.24400e-02,-0.4
2.24800e-02,-0.4
2.25200e-02,-0.48
2.25600e-02,-0.4
2.26000e-02,-0.56
2.26400e-02,-0.48
2.26800e-02,-0.64
2.27200e-02,-0.48
2.27600e-02,-0.56
2.28000e-02,-0.56
2.28400e-02,-0.64
2.28800e-02,-0.64
2.29200e-02,-0.64
2.29600e-02,-0.64
2.30000e-02,-0.8
2.30400e-02,-0.88
2.30800e-02,-0.88
2.31200e-02,-0.88
2.31600e-02,-0.88
2.32000e-02,-1.04
2.32400e-02,-0.96
2.32800e-02,-0.96
2.33200e-02,-1.12
2.33600e-02,-1.04
2.34000e-02,-1.04
2.34400e-02,-1.04
2.34800e-02,-1.2
2.35200e-02,-1.12
2.35600e-02,-1.2
2.36000e-02,-1.36
2.36400e-02,-1.2
2.36800e-02,-1.28
2.37200e-02,-1.28
2.37600e-02,-1.28
2.38000e-02,-1.28
2.38400e-02,-1.36
2.38800e-02,-1.36
2.39200e-02,-1.52
2.39600e-02,-1.36
2.40000e-02,-1.52
2.40400e-02,-1.6
2.40800e-02,-1.52
2.41200e-02,-1.68
2.41600e-02,-1.76
2.42000e-02,-1.68
2.42400e-02,-1.6
2.42800e-02,-1.68
2.43200e-02,-1.76
2.43600e-02,-1.68
2.44000e-02,-1.84
2.44400e-02,-1.76
2.44800e-02,-2
2.45200e-02,-1.92
2.45600e-02,-1.92
2.46000e-02,-1.84
2.46400e-02,-2.08
2.46800e-02,-2.16
2.47200e-02,-1.84
2.47600e-02,-2.08
2.48000e-02,-2.08
2.48400e-02,-2.24
2.48800e-02,-2.16
2.49200e-02,-2.16
2.49600e-02,-2.24
2.50000e-02,-2.24
2.50400e-02,-2.32
2.50800e-02,-2.4
2.51200e-02,-2.4
2.51600e-02,-2.24
2.52000e-02,-2.32
2.52400e-02,-2.4
2.52800e-02,-2.48
2.53200e-02,-2.48
2.53600e-02,-2.4
2.54000e-02,-2.56
2.54400e-02,-2.56
2.54800e-02,-2.56
2.55200e-02,-2.64
2.55600e-02,-2.56
2.56000e-02,-2.56
2.56400e-02,-2.64
2.56800e-02,-2.64
2.57200e-02,-2.8
2.57600e-02,-2.8
2.58000e-02,-2.72
2.58400e-02,-2.72
2.58800e-02,-2.8
2.59200e-02,-2.64
2.59600e-02,-2.8
2.60000e-02,-2.96
2.60400e-02,-2.8
2.60800e-02,-2.96
2.61200e-02,-3.04
2.61600e-02,-3.04
2.62000e-02,-2.96
2.62400e-02,-3.12
2.62800e-02,-3.04
2.63200e-02,-3.04
2.63600e-02,-3.04
2.64000e-02,-3.04
2.64400e-02,-3.12
2.64800e-02,-3.2
2.65200e-02,-3.12
2.65600e-02,-3.28
2.66000e-02,-3.2
2.66400e-02,-3.28
2.66800e-02,-3.44
2.67200e-02,-3.36
2.67600e-02,-3.28
2.68000e-02,-3.28
2.68400e-02,-3.36
2.68800e-02,-3.36
2.69200e-02,-3.28
2.69600e-02,-3.52
2.70000e-02,-3.52
2.70400e-02,-3.52
2.70800e-02,-3.36
2.71200e-02,-3.44
2.71600e-02,-3.52
2.72000e-02,-3.68
2.72400e-02,-3.6
2.72800e-02,-3.68
2.73200e-02,-3.52
2.73600e-02,-3.76
2.74000e-02,-3.84
2.74400e-02,-3.68
2.74800e-02,-3.76
2.75200e-02,-3.68
2.75600e-02,-3.92
2.76000e-02,-3.76
2.76400e-02,-3.84
2.76800e-02,-3.68
2.77200e-02,-3.84
2.77600e-02,-3.84
2.78000e-02,-3.84
2.78400e-02,-3.76
2.78800e-02,-3.84
2.79200e-02,-3.92
2.79600e-02,-3.92
2.80000e-02,-3.92
2.80400e-02,-4
2.80800e-02,-4.16
2.81200e-02,-3.92
2.81600e-02,-3.84
2.82000e-02,-4.16
2.82400e-02,-4.08
2.82800e-02,-4.16
2.83200e-02,-4.16
2.83600e-02,-4.24
2.84000e-02,-4.24
2.84400e-02,-4.24
2.84800e-02,-4.08
2.85200e-02,-4.08
2.85600e-02,-4.16
2.86000e-02,-4.32
2.86400e-02,-4.32
2.86800e-02,-4.08
2.87200e-02,-4.24
2.87600e-02,-4.32
2.88000e-02,-4.32
2.88400e-02,-4.4
2.88800e-02,-4.32
2.89200e-02,-4.4
2.89600e-02,-4.48
2.90000e-02,-4.4
2.90400e-02,-4.32
2.90800e-02,-4.4
2.91200e-02,-4.56
2.91600e-02,-4.48
2.92000e-02,-4.64
2.92400e-02,-4.4
2.92800e-02,-4.48
2.93200e-02,-4.48
2.93600e-02,-4.4
2.94000e-02,-4.56
2.94400e-02,-4.56
2.94800e-02,-4.64
2.95200e-02,-4.56
2.95600e-02,-4.48
2.96000e-02,-4.64
2.96400e-02,-4.72
2.96800e-02,-4.72
2.97200e-02,-4.72
2.97600e-02,-4.8
2.98000e-02,-4.8
2.98400e-02,-4.64
2.98800e-02,-4.72
2.99200e-02,-4.72
2.99600e-02,-4.72
3.00000e-02,-4.8
3.00400e-02,-4.8
3.00800e-02,-4.72
3.01200e-02,-4.72
3.01600e-02,-4.8
3.02000e-02,-4.64
3.02400e-02,-4.88
3.02800e-02,-4.8
3.03200e-02,-4.8
3.03600e-02,-4.88
3.04000e-02,-5.04
3.04400e-02,-4.72
3.04800e-02,-4.96
3.05200e-02,-4.88
3.05600e-02,-4.88
3.06000e-02,-4.8
3.06400e-02,-4.96
3.06800e-02,-4.88
3.07200e-02,-5.04
3.07600e-02,-4.96
3.08000e-02,-4.8
3.08400e-02,-4.88
3.08800e-02,-4.88
3.09200e-02,-5.04
3.09600e-02,-5.04
3.10000e-02,-5.12
3.10400e-02,-5.12
3.10800e-02,-4.96
3.11200e-02,-4.88
3.11600e-02,-5.04
3.12000e-02,-4.96
3.12400e-02,-5.12
3.12800e-02,-4.96
3.13200e-02,-5.04
3.13600e-02,-4.96
3.14000e-02,-5.04
3.14400e-02,-5.12
3.14800e-02,-5.12
3.15200e-02,-4.96
3.15600e-02,-4.96
3.16000e-02,-5.12
3.16400e-02,-5.2
3.16800e-02,-4.96
3.17200e-02,-5.04
3.17600e-02,-5.04
3.18000e-02,-5.12
3.18400e-02,-5.2
3.18800e-02,-5.2
3.19200e-02,-4.96
3.19600e-02,-5.2
3.20000e-02,-5.12
3.20400e-02,-5.12
3.20800e-02,-5.2
3.21200e-02,-5.12
3.21600e-02,-5.2
3.22000e-02,-5.2
3.22400e-02,-5.12
3.22800e-02,-5.12
3.23200e-02,-5.04
3.23600e-02,-5.2
3.24000e-02,-5.12
3.24400e-02,-5.12
3.24800e-02,-5.04
3.25200e-02,-5.12
3.25600e-02,-5.2
3.26000e-02,-5.2
3.26400e-02,-5.12
3.26800e-02,-5.12
3.27200e-02,-5.12
3.27600e-02,-5.2
3.28000e-02,-5.2
3.28400e-02,-5.28
3.28800e-02,-5.2
3.29200e-02,-5.12
3.29600e-02,-5.12
3.30000e-02,-5.2
3.30400e-02,-5.2
3.30800e-02,-5.12
3.31200e-02,-5.12
3.31600e-02,-5.36
3.32000e-02,-5.36
3.32400e-02,-5.28
3.32800e-02,-5.36
3.33200e-02,-5.2
3.33600e-02,-5.2
3.34000e-02,-5.12
3.34400e-02,-5.2
3.34800e-02,-5.2
3.35200e-02,-5.2
3.35600e-02,-5.2
3.36000e-02,-5.36
3.36400e-02,-5.2
3.36800e-02,-5.04
3.37200e-02,-5.28
3.37600e-02,-5.2
3.38000e-02,-5.2
3.38400e-02,-5.04
3.38800e-02,-5.2
3.39200e-02,-5.2
3.39600e-02,-5.2
3.40000e-02,-5.12
3.40400e-02,-5.2
3.40800e-02,-5.2
3.41200e-02,-5.12
3.41600e-02,-5.12
3.42000e-02,-5.2
3.42400e-02,-5.2
3.42800e-02,-5.2
3.43200e-02,-4.96
3.43600e-02,-5.12
3.44000e-02,-4.96
3.44400e-02,-5.04
3.44800e-02,-5.12
3.45200e-02,-5.2
3.45600e-02,-5.12
3.46000e-02,-4.96
3.46400e-02,-5.04
3.46800e-02,-5.12
3.47200e-02,-5.12
3.47600e-02,-5.12
3.48000e-02,-4.88
3.48400e-02,-5.2
3.48800e-02,-5.04
3.49200e-02,-5.2
3.49600e-02,-5.12
3.50000e-02,-4.96
3.50400e-02,-4.96
3.50800e-02,-5.04
3.51200e-02,-4.96
3.51600e-02,-4.96
3.52000e-02,-5.04
3.52400e-02,-4.96
3.52800e-02,-5.04
3.53200e-02,-4.96
3.53600e-02,-5.04
3.54000e-02,-4.96
3.54400e-02,-4.96
3.54800e-02,-4.88
3.55200e-02,-4.88
3.55600e-02,-4.96
3.56000e-02,-4.96
3.56400e-02,-4.88
3.56800e-02,-4.8
3.57200e-02,-4.72
3.57600e-02,-4.96
3.58000e-02,-4.88
3.58400e-02,-4.96
3.58800e-02,-4.88
3.59200e-02,-4.88
3.59600e-02,-4.88
3.60000e-02,-4.72
3.60400e-02,-4.72
3.60800e-02,-4.8
3.61200e-02,-4.8
3.61600e-02,-4.8
3.62000e-02,-4.88
3.62400e-02,-4.8
3.62800e-02,-4.72
3.63200e-02,-4.8
3.63600e-02,-4.88
3.64000e-02,-4.72
3.64400e-02,-4.8
3.64800e-02,-4.72
3.65200e-02,-4.72
3.65600e-02,-4.72
3.66000e-02,-4.72
3.66400e-02,-4.56
3.66800e-02,-4.72
3.67200e-02,-4.8
3.67600e-02,-4.72
3.68000e-02,-4.64
3.68400e-02,-4.56
3.68800e-02,-4.64
3.69200e-02,-4.64
3.69600e-02,-4.56
3.70000e-02,-4.48
3.70400e-02,-4.56
3.70800e-02,-4.56
3.71200e-02,-4.56
3.71600e-02,-4.64
3.72000e-02,-4.56
3.72400e-02,-4.4
3.72800e-02,-4.4
3.73200e-02,-4.56
3.73600e-02,-4.4
3.74000e-02,-4.32
3.74400e-02,-4.48
3.74800e-02,-4.32
3.75200e-02,-4.16
3.75600e-02,-4.48
3.76000e-02,-4.24
3.76400e-02,-4.16
3.76800e-02,-4.24
3.77200e-02,-4.32
3.77600e-02,-4.24
3.78000e-02,-4.32
3.78400e-02,-4.08
3.78800e-02,-4.24
3.79200e-02,-4.16
3.79600e-02,-4.24
3.80000e-02,-4.08
3.80400e-02,-4
3.80800e-02,-3.92
3.81200e-02,-4.08
3.81600e-02,-4
3.82000e-02,-4
3.82400e-02,-4
3.82800e-02,-3.92
3.83200e-02,-4
3.83600e-02,-3.92
3.84000e-02,-4
3.84400e-02,-4
3.84800e-02,-3.84
3.85200e-02,-3.84
3.85600e-02,-3.84
3.86000e-02,-3.84
3.86400e-02,-3.84
3.86800e-02,-3.76
3.87200e-02,-3.92
3.87600e-02,-3.68
3.88000e-02,-3.76
3.88400e-02,-3.68
3.88800e-02,-3.68
3.89200e-02,-3.68
3.89600e-02,-3.68
3.90000e-02,-3.6
3.90400e-02,-3.44
3.90800e-02,-3.68
3.91200e-02,-3.44
3.91600e-02,-3.6
3.92000e-02,-3.52
3.92400e-02,-3.44
3.92800e-02,-3.44
3.93200e-02,-3.44
3.93600e-02,-3.36
3.94000e-02,-3.44
3.94400e-02,-3.36
3.94800e-02,-3.04
3.95200e-02,-3.12
3.95600e-02,-3.12
3.96000e-02,-3.2
3.96400e-02,-3.28
3.96800e-02,-3.04
3.97200e-02,-3.2
3.97600e-02,-3.2
3.98000e-02,-3.2
3.98400e-02,-3.2
3.98800e-02,-3.04
3.99200e-02,-3.04
3.99600e-02,-3.04
4.00000e-02,-3.12
4.00400e-02,-2.96
4.00800e-02,-2.88
4.01200e-02,-2.8
4.01600e-02,-2.88
4.02000e-02,-2.8
4.02400e-02,-2.64
4.02800e-02,-2.88
4.03200e-02,-2.72
4.03600e-02,-2.64
4.04000e-02,-2.72
4.04400e-02,-2.64
4.04800e-02,-2.56
4.05200e-02,-2.48
4.05600e-02,-2.56
4.06000e-02,-2.64
4.06400e-02,-2.48
4.06800e-02,-2.56
4.07200e-02,-2.48
4.07600e-02,-2.4
4.08000e-02,-2.24
4.08400e-02,-2.48
4.08800e-02,-2.32
4.09200e-02,-2.32
4.09600e-02,-2.4
4.10000e-02,-2.16
4.10400e-02,-2.16
4.10800e-02,-2.24
4.11200e-02,-2.16
4.11600e-02,-1.92
4.12000e-02,-1.92
4.12400e-02,-2
4.12800e-02,-2
4.13200e-02,-1.84
4.13600e-02,-1.84
4.14000e-02,-1.84
4.14400e-02,-1.76
4.14800e-02,-1.76
4.15200e-02,-1.68
4.15600e-02,-1.6
4.16000e-02,-1.84
4.16400e-02,-1.68
4.16800e-02,-1.52
4.17200e-02,-1.6
4.17600e-02,-1.44
4.18000e-02,-1.6
4.18400e-02,-1.44
4.18800e-02,-1.36
4.19200e-02,-1.36
4.19600e-02,-1.36
4.20000e-02,-1.36
4.20400e-02,-1.2
4.20800e-02,-1.28
4.21200e-02,-1.2
4.21600e-02,-1.2
4.22000e-02,-1.04
4.22400e-02,-1.04
4.22800e-02,-1.12
4.23200e-02,-1.04
4.23600e-02,-0.8
4.24000e-02,-0.96
4.24400e-02,-1.04
4.24800e-02,-1.04
4.25200e-02,-0.96
4.25600e-02,-0.88
4.26000e-02,-0.64
4.26400e-02,-0.8
4.26800e-02,-0.72
4.27200e-02,-0.64
4.27600e-02,-0.64
4.28000e-02,-0.56
4.28400e-02,-0.64
4.28800e-02,-0.48
4.29200e-02,-0.4
4.29600e-02,-0.48
4.30000e-02,-0.4
4.30400e-02,-0.4
4.30800e-02,-0.32
4.31200e-02,-0.16
4.31600e-02,-0.24
4.32000e-02,-0.16
4.32400e-02,-0.24
4.32800e-02,-0.08
4.33200e-02,-0.08
4.33600e-02,-0.08
4.34000e-02,-0.08
4.34400e-02,0
4.34800e-02,0
4.35200e-02,0
4.35600e-02,0.08
4.36000e-02,0.08
4.36400e-02,0.08
4.36800e-02,0.24
4.37200e-02,0.24
4.37600e-02,0.32
4.38000e-02,0.32
4.38400e-02,0.32
4.38800e-02,0.48
4.39200e-02,0.4
4.39600e-02,0.4
4.40000e-02,0.4
4.40400e-02,0.48
4.40800e-02,0.56
4.41200e-02,0.56
4.41600e-02,0.64
4.42000e-02,0.64
4.42400e-02,0.48
4.42800e-02,0.64
4.43200e-02,0.72
4.43600e-02,0.88
4.44000e-02,0.8
4.44400e-02,1.04
4.44800e-02,1.04
4.45200e-02,0.88
4.45600e-02,1.12
4.46000e-02,0.96
4.46400e-02,1.04
4.46800e-02,1.12
4.47200e-02,1.12
4.47600e-02,1.12
4.48000e-02,1.12
4.48400e-02,1.28
4.48800e-02,1.2
4.49200e-02,1.36
4.49600e-02,1.28
4.50000e-02,1.36
4.50400e-02,1.44
4.50800e-02,1.44
4.51200e-02,1.44
4.51600e-02,1.44
4.52000e-02,1.6
4.52400e-02,1.6
4.52800e-02,1.68
4.53200e-02,1.68
4.53600e-02,1.76
4.54000e-02,1.84
4.54400e-02,1.76
4.54800e-02,1.68
4.55200e-02,1.92
4.55600e-02,2
4.56000e-02,1.92
4.56400e-02,2
4.56800e-02,2.08
4.57200e-02,2
4.57600e-02,2.16
4.58000e-02,2.08
4.58400e-02,2.08
4.58800e-02,2.08
4.59200e-02,2.24
